{
    "_id": "64ab4f96be38c98ad2600edd",
    "userId": "64a76580fc37f3d3d930cf64",
    "courseId": "64ab4f96be38c98ad260a7fb",
    "isPaid": true,
    "paymentMethod": "Paypal",
    "dateTimeRegistered": "2023-07-26T14:30:00Z"
}